{
    "daltonflooringoutlet.com": {
        "siteId": "zVADIvTyZOnHgwYkpewPyBqTlkaBGRVn",
        "siteSecret": "T5aj4rvGqrW56vbiZQFSXO42AqdEFEsSMB6AEyK2SWAMdqCQnZyRJo69iwSu2yPX",
        "blogId": 1,
        "compression": true,
        "webhookToken": "d2e0de6237c098c6c010b7af82a54c9b",
        "home_url": "https:\/\/daltonflooringoutlet.com",
        "admin_url": "https:\/\/daltonflooringoutlet.com\/wp-admin\/",
        "hosting": "unknown",
        "alwaysBuffer": true,
        "isEzoicActive": false,
        "isApoActive": false,
        "isLateIntegrationInitRequired": false,
        "isDlmActive": false,
        "dlm_downloading_url": null,
        "dlm_download_endpoint": null,
        "pluginVersion": "1.5.8"
    }
}